[
  "hellhole/2Ninjas.lev",
  "hellhole/BALTIC.lev",
  "hellhole/BEAM2.LEV",
  "hellhole/BUNKERS_1.LEV",
  "hellhole/BUNKRY.LEV",
  "hellhole/Cross Walls.lev",
  "hellhole/Curves.lev",
  "hellhole/DEADLYFL.LEV",
  "hellhole/DEATH BO.LEV",
  "hellhole/DIAMOND.LEV",
  "hellhole/DM-1.lev",
  "hellhole/Damned.lev",
  "hellhole/Dzuma.lev",
  "hellhole/Ice cave.lev",
  "hellhole/Kewk.lev",
  "hellhole/Kitchen.lev",
  "hellhole/Line.lev",
  "hellhole/MAZEOFDTH.lev",
  "hellhole/Passage.lev",
  "hellhole/Q3basin.lev",
  "hellhole/ROCK1.LEV",
  "hellhole/RUSH.LEV",
  "hellhole/TEMPLE_1.LEV",
  "hellhole/Tightwad.lev",
  "hellhole/VermisPit.lev",
  "hellhole/ZIMM.LEV",
  "hellhole/Zeppelin.lev",
  "hellhole/arena.lev",
  "hellhole/blastpit.lev",
  "hellhole/bunnycat.lev",
  "hellhole/cathode2.lev",
  "hellhole/crazy_1.lev",
  "hellhole/death.lev",
  "hellhole/diagonal.lev",
  "hellhole/dojo.lev",
  "hellhole/dotty.lev",
  "hellhole/finlfigt.lev",
  "hellhole/flyndie.lev",
  "hellhole/handz.lev",
  "hellhole/hardwrld.lev",
  "hellhole/hill.lev",
  "hellhole/hvymetal.lev",
  "hellhole/jumpbase.lev",
  "hellhole/jungle2.lev",
  "hellhole/kickass.lev",
  "hellhole/king.lev",
  "hellhole/nav_dm.lev",
  "hellhole/nike.lev",
  "hellhole/openjump.lev",
  "hellhole/quake2.lev",
  "hellhole/teraz3.lev",
  "hellhole/thorn.lev",
  "hellhole/walls.lev",
  "hellhole/war_1.lev",
  "hellhole/wcav.lev",
  "hellhole/zimmarea.lev",
  "hellhole/Q3arena2.lev",
  "hellhole/1337.lev",
  "hellhole/2xcathode.lev",
  "hellhole/2xkross-s.lev",
  "hellhole/2zamki3.lev",
  "hellhole/6xwheel.lev",
  "hellhole/Agave.lev",
  "hellhole/Circling.lev",
  "hellhole/Fin.lev",
  "hellhole/Jump.lev",
  "hellhole/Kross3.lev",
  "hellhole/Kross4.lev",
  "hellhole/MyLevel2.lev",
  "hellhole/Owl.lev",
  "hellhole/RGB.LEV",
  "hellhole/RU.LEV",
  "hellhole/SNight.lev",
  "hellhole/Shelves.lev",
  "hellhole/Simple.lev",
  "hellhole/aqueducts.lev",
  "hellhole/dethruw3.lev",
  "hellhole/egypt.lev",
  "hellhole/gears.lev",
  "hellhole/glasscup.lev",
  "hellhole/kross31-s.lev",
  "hellhole/manson.lev",
  "hellhole/meander.lev",
  "hellhole/miazga.lev",
  "hellhole/navarona.lev",
  "hellhole/quickdef.lev",
  "hellhole/shadowr.lev",
  "hellhole/shayss.lev",
  "hellhole/stronghold.lev",
  "hellhole/tdk3.lev",
  "hellhole/tiger-s.lev",
  "hellhole/2xkross2.lev",
  "hellhole/4squares.lev",
  "hellhole/Cathode_1.lev",
  "hellhole/Cheese.lev",
  "hellhole/DUEL.LEV",
  "hellhole/HUSK.LEV",
  "hellhole/INDIA2.LEV",
  "hellhole/Likwid.lev",
  "hellhole/MITH.lev",
  "hellhole/Memory.lev",
  "hellhole/Owl-2.lev",
  "hellhole/Owl-3.lev",
  "hellhole/Saloon.lev",
  "hellhole/Sancti.lev",
  "hellhole/Simple2.lev",
  "hellhole/TEMPLE27.LEV",
  "hellhole/angel.lev",
  "hellhole/arena711.lev",
  "hellhole/arkham.lev",
  "hellhole/atr.lev",
  "hellhole/badger.lev",
  "hellhole/bj4wilq.lev",
  "hellhole/cathode.lev",
  "hellhole/deathruw.lev",
  "hellhole/fallout2.lev",
  "hellhole/ghostrider_platforms.lev",
  "hellhole/izbla.lev",
  "hellhole/panther-s.lev",
  "hellhole/pokol2.lev",
  "hellhole/pyramid_1.lev",
  "hellhole/qflight.lev",
  "hellhole/tune-l.lev",
  "hellhole/unite.lev"
]